{
    "albums": {
        "href": "https://api.spotify.com/v1/browse/new-releases?country=NL&offset=0&limit=2",
        "items": [
            {
                "album_type": "album",
                "artists": [
                    {
                        "external_urls": {
                            "spotify": "https://open.spotify.com/artist/5VGhS6nHpXPbXGhku9RRB0"
                        },
                        "href": "https://api.spotify.com/v1/artists/5VGhS6nHpXPbXGhku9RRB0",
                        "id": "5VGhS6nHpXPbXGhku9RRB0",
                        "name": "Sef",
                        "type": "artist",
                        "uri": "spotify:artist:5VGhS6nHpXPbXGhku9RRB0"
                    }
                ],
                "available_markets": [
                    "AD",
                    "AE",
                    "AG",
                    "AL",
                    "AM",
                    "AO",
                    "AR",
                    "AT",
                    "AU",
                    "AZ",
                    "BA",
                    "BB",
                    "BD",
                    "BE",
                    "BF",
                    "BG",
                    "BH",
                    "BI",
                    "BJ",
                    "BN",
                    "BO",
                    "BR",
                    "BS",
                    "BT",
                    "BW",
                    "BZ",
                    "CA",
                    "CD",
                    "CG",
                    "CH",
                    "CI",
                    "CL",
                    "CM",
                    "CO",
                    "CR",
                    "CV",
                    "CW",
                    "CY",
                    "CZ",
                    "DE",
                    "DJ",
                    "DK",
                    "DM",
                    "DO",
                    "DZ",
                    "EC",
                    "EE",
                    "EG",
                    "ES",
                    "ET",
                    "FI",
                    "FJ",
                    "FM",
                    "FR",
                    "GA",
                    "GB",
                    "GD",
                    "GE",
                    "GH",
                    "GM",
                    "GN",
                    "GQ",
                    "GR",
                    "GT",
                    "GW",
                    "GY",
                    "HK",
                    "HN",
                    "HR",
                    "HT",
                    "HU",
                    "ID",
                    "IE",
                    "IL",
                    "IN",
                    "IQ",
                    "IS",
                    "IT",
                    "JM",
                    "JO",
                    "JP",
                    "KE",
                    "KG",
                    "KH",
                    "KI",
                    "KM",
                    "KN",
                    "KR",
                    "KW",
                    "KZ",
                    "LA",
                    "LB",
                    "LC",
                    "LI",
                    "LK",
                    "LR",
                    "LS",
                    "LT",
                    "LU",
                    "LV",
                    "LY",
                    "MA",
                    "MC",
                    "MD",
                    "ME",
                    "MG",
                    "MH",
                    "MK",
                    "ML",
                    "MN",
                    "MO",
                    "MR",
                    "MT",
                    "MU",
                    "MV",
                    "MW",
                    "MX",
                    "MY",
                    "MZ",
                    "NA",
                    "NE",
                    "NG",
                    "NI",
                    "NL",
                    "NO",
                    "NP",
                    "NR",
                    "NZ",
                    "OM",
                    "PA",
                    "PE",
                    "PG",
                    "PH",
                    "PK",
                    "PL",
                    "PS",
                    "PT",
                    "PW",
                    "PY",
                    "QA",
                    "RO",
                    "RS",
                    "RW",
                    "SA",
                    "SB",
                    "SC",
                    "SE",
                    "SG",
                    "SI",
                    "SK",
                    "SL",
                    "SM",
                    "SN",
                    "SR",
                    "ST",
                    "SV",
                    "SZ",
                    "TD",
                    "TG",
                    "TH",
                    "TJ",
                    "TL",
                    "TN",
                    "TO",
                    "TR",
                    "TT",
                    "TV",
                    "TW",
                    "TZ",
                    "UA",
                    "UG",
                    "US",
                    "UY",
                    "UZ",
                    "VC",
                    "VE",
                    "VN",
                    "VU",
                    "WS",
                    "XK",
                    "ZA",
                    "ZM",
                    "ZW"
                ],
                "external_urls": {
                    "spotify": "https://open.spotify.com/album/27F3o3c9Li3EfhG4XSEWbS"
                },
                "href": "https://api.spotify.com/v1/albums/27F3o3c9Li3EfhG4XSEWbS",
                "id": "27F3o3c9Li3EfhG4XSEWbS",
                "images": [
                    {
                        "height": 640,
                        "url": "https://i.scdn.co/image/ab67616d0000b273e62e7310b03f84750837e04a",
                        "width": 640
                    },
                    {
                        "height": 300,
                        "url": "https://i.scdn.co/image/ab67616d00001e02e62e7310b03f84750837e04a",
                        "width": 300
                    },
                    {
                        "height": 64,
                        "url": "https://i.scdn.co/image/ab67616d00004851e62e7310b03f84750837e04a",
                        "width": 64
                    }
                ],
                "name": "Ik Zou Voor Veel Kunnen Sterven Maar Niet Voor Een Vlag",
                "release_date": "2023-02-02",
                "release_date_precision": "day",
                "total_tracks": 17,
                "type": "album",
                "uri": "spotify:album:27F3o3c9Li3EfhG4XSEWbS"
            },
            {
                "album_type": "album",
                "artists": [
                    {
                        "external_urls": {
                            "spotify": "https://open.spotify.com/artist/5KKpBU5eC2tJDzf0wmlRp2"
                        },
                        "href": "https://api.spotify.com/v1/artists/5KKpBU5eC2tJDzf0wmlRp2",
                        "id": "5KKpBU5eC2tJDzf0wmlRp2",
                        "name": "RAYE",
                        "type": "artist",
                        "uri": "spotify:artist:5KKpBU5eC2tJDzf0wmlRp2"
                    }
                ],
                "available_markets": [
                    "AD",
                    "AE",
                    "AG",
                    "AL",
                    "AM",
                    "AO",
                    "AR",
                    "AT",
                    "AU",
                    "AZ",
                    "BA",
                    "BB",
                    "BD",
                    "BE",
                    "BF",
                    "BG",
                    "BH",
                    "BI",
                    "BJ",
                    "BN",
                    "BO",
                    "BR",
                    "BS",
                    "BT",
                    "BW",
                    "BY",
                    "BZ",
                    "CA",
                    "CD",
                    "CG",
                    "CH",
                    "CI",
                    "CL",
                    "CM",
                    "CO",
                    "CR",
                    "CV",
                    "CW",
                    "CY",
                    "CZ",
                    "DE",
                    "DJ",
                    "DK",
                    "DM",
                    "DO",
                    "DZ",
                    "EC",
                    "EE",
                    "EG",
                    "ES",
                    "ET",
                    "FI",
                    "FJ",
                    "FM",
                    "FR",
                    "GA",
                    "GB",
                    "GD",
                    "GE",
                    "GH",
                    "GM",
                    "GN",
                    "GQ",
                    "GR",
                    "GT",
                    "GW",
                    "GY",
                    "HK",
                    "HN",
                    "HR",
                    "HT",
                    "HU",
                    "ID",
                    "IE",
                    "IL",
                    "IN",
                    "IQ",
                    "IS",
                    "IT",
                    "JM",
                    "JO",
                    "JP",
                    "KE",
                    "KG",
                    "KH",
                    "KI",
                    "KM",
                    "KN",
                    "KR",
                    "KW",
                    "KZ",
                    "LA",
                    "LB",
                    "LC",
                    "LI",
                    "LK",
                    "LR",
                    "LS",
                    "LT",
                    "LU",
                    "LV",
                    "LY",
                    "MA",
                    "MC",
                    "MD",
                    "ME",
                    "MG",
                    "MH",
                    "MK",
                    "ML",
                    "MN",
                    "MO",
                    "MR",
                    "MT",
                    "MU",
                    "MV",
                    "MW",
                    "MX",
                    "MY",
                    "MZ",
                    "NA",
                    "NE",
                    "NG",
                    "NI",
                    "NL",
                    "NO",
                    "NP",
                    "NR",
                    "NZ",
                    "OM",
                    "PA",
                    "PE",
                    "PG",
                    "PH",
                    "PK",
                    "PL",
                    "PS",
                    "PT",
                    "PW",
                    "PY",
                    "QA",
                    "RO",
                    "RS",
                    "RW",
                    "SA",
                    "SB",
                    "SC",
                    "SE",
                    "SG",
                    "SI",
                    "SK",
                    "SL",
                    "SM",
                    "SN",
                    "SR",
                    "ST",
                    "SV",
                    "SZ",
                    "TD",
                    "TG",
                    "TH",
                    "TJ",
                    "TL",
                    "TN",
                    "TO",
                    "TR",
                    "TT",
                    "TV",
                    "TW",
                    "TZ",
                    "UA",
                    "UG",
                    "US",
                    "UY",
                    "UZ",
                    "VC",
                    "VE",
                    "VN",
                    "VU",
                    "WS",
                    "XK",
                    "ZA",
                    "ZM",
                    "ZW"
                ],
                "external_urls": {
                    "spotify": "https://open.spotify.com/album/3U8n8LzBx2o9gYXvvNq4uH"
                },
                "href": "https://api.spotify.com/v1/albums/3U8n8LzBx2o9gYXvvNq4uH",
                "id": "3U8n8LzBx2o9gYXvvNq4uH",
                "images": [
                    {
                        "height": 640,
                        "url": "https://i.scdn.co/image/ab67616d0000b27394e5237ce925531dbb38e75f",
                        "width": 640
                    },
                    {
                        "height": 300,
                        "url": "https://i.scdn.co/image/ab67616d00001e0294e5237ce925531dbb38e75f",
                        "width": 300
                    },
                    {
                        "height": 64,
                        "url": "https://i.scdn.co/image/ab67616d0000485194e5237ce925531dbb38e75f",
                        "width": 64
                    }
                ],
                "name": "My 21st Century Blues",
                "release_date": "2023-02-03",
                "release_date_precision": "day",
                "total_tracks": 15,
                "type": "album",
                "uri": "spotify:album:3U8n8LzBx2o9gYXvvNq4uH"
            }
        ],
        "limit": 2,
        "next": "https://api.spotify.com/v1/browse/new-releases?country=NL&offset=2&limit=2",
        "offset": 0,
        "previous": null,
        "total": 100
    }
}
